0 585585
69 587979
362 602241
417 603831
486 606279
507 624003
667 614682
876 624200
930 628225
931 748661
1025 629958
1104 542195
1136 620893 637680 637769
1199 641505
1280 645760
1421 256504
1471 1606
1698 664989
1873 672430
1876 672495
2096 684008
2112 680660
2291 689453
2393 695423
2449 699106
2490 703658 704725
3319 735660
3325 733580
3828 755183
4085 764399
4171 768349
4355 768541
4388 775059
4521 781200
4569 783298
4722 789172
4766 63398
4873 797264
4913 799041
4997 800946
5330 816361
5489 822409
5493 820240
5570 826576
5980 830083
6958 881090
7106 887342
7175 890503
7662 348233
7673 910228
7747 912769
7959 659110
8179 929146
8309 933735
8732 947322
9159 965005 965284
9495 976245
9529 977760
9549 871281
10051 999780
10380 233810
12587 225512
14746 519866
15262 970888
16340 885909
16370 567547
16801 650465
17729 17774
19248 915101
19392 19490
19673 943394
20401 27668
20836 346252
22305 237300
22824 333050
22946 277466
24804 747126
25040 278851
25313 593571
25419 26241
25723 26795
26540 957221
26890 700491
26969 444460
27232 28322
27466 629216
27656 56765
28874 50184
29138 30257
29503 30534
29569 43398
30063 30244
30790 67362
30958 97990
31194 31234
31399 169064
32683 443437
32837 33516
32920 481231
32946 666717
33001 36422
33525 33885
34679 34843
35025 544553
35381 35951
35537 35900
35863 40723
36797 285197
36861 801092
37025 455393
37052 46223
37143 59924
37713 39193
38325 181695
38521 80751 190378 327672 817347
38912 895152
38972 487577 570627
39125 43868
39717 56725
39881 558867
40003 113729
40061 244435
40351 309345
40446 117207
42415 45421
42694 42811 44980 45827
42737 43829
43131 219518
43198 44876
43355 127863
43651 44040
43706 44922
43746 43949
44099 282599
44231 45952
44841 45224
45854 126881 188801
46106 46148
46244 46261
46681 282889
47223 62180
47373 75399
48313 180471
49230 58653
49838 307351 817392
49863 50425
50688 50796
51895 124728
51934 53822
52195 311486
52233 915392
52584 52833
52668 52719
52778 79293
53301 545366
53936 82822
54230 807379
54410 113366
54609 54969
55612 279084
55816 305574
56008 802914
56163 317383
56258 77640
56426 56981
56685 81032
57155 699565
57799 57991
57808 57946
58081 739789
58279 59019
58522 58958
59516 60086
59630 59765
60381 61145
60441 636192
61379 61782
62222 390421
62228 474544
63682 65444
63711 111806
65189 214894
65421 68449
65601 96434 108513
65701 86364
65743 82897
65965 398036
66194 430125
66476 232225
67128 134280
67792 67915
67845 138390
68056 71719
68997 496538
69015 70795
69142 246201 725294
69423 136746
70318 70597
70922 201502
71084 71424
71404 72709
73399 73535
73498 885933
74053 74357
74288 166195
74419 91628
75001 76343
75992 79921
76735 77630
77684 624981
77885 145887
78442 166400
78607 92145
78753 332655
79788 425439
79820 460022
79965 92646
79966 90836
80426 84914
80531 309713
81142 257759 302789
81471 82829
81977 194962
82072 117583
83386 529842
84376 84646
84812 88518 88706 89677 90355 90431 91431 92371 92442 92465 92515 92529 94360 95840
85374 737957 862619
86303 86679
86337 87091
86471 851130
86738 91987
87212 92203
87754 90356 90564
88350 88971
88538 576256
89005 91143
89127 98537
89257 89986
89365 135280
89712 315934
89729 110243
90003 100744
90081 166838 176723
90295 90974
92017 92212
92321 99721
93107 102985
93512 310416
93761 93842
94195 100090
94567 100005
95361 106107
95501 97552
96021 97653
96197 96740
96227 99959
96401 96802
97097 158974
99953 108022
100800 101930
101625 186577
102554 102633
102590 110369
102729 106362
103592 827799
103722 400100
103762 718794
103999 104024
104064 135281
104193 105757 107079
105572 107697
105584 390592
105764 803011
105853 106893
106426 474181
106846 214222
107368 905045
107378 417877
107518 760749
107636 122722
107699 282229
107758 118888
108104 109186
109678 472569
109762 110919 133374 405366
109791 122862
109871 114367
111386 128493
111492 112250
111663 111951
111727 130450
113312 132335
113360 113516
113552 115495
113694 114363
113731 474206
114423 673063
114479 226147
115156 116562
115579 127389
115932 162736
116701 129803
116977 128332
117159 867631 867928
117309 117734
117551 125477
118375 823043
118871 118925
118897 212991
119278 123425
119438 120375
119829 120131
119882 144008
120083 121854
120220 120468
120769 983376
121018 641461
121615 192538
122746 126576
122849 123053
122876 126708
122980 432994
123171 153514
123281 123627
123414 163480
123578 124524
124150 160798 169637 169703 169906 170578 171463 398426
124584 125690
124621 262196
124661 125149
124702 419321
124971 129462
125045 252568 284708 449914
125286 125507
125401 126791
125599 125882
125939 845034
126537 126786
126539 136387
126596 127032
127096 127649
127745 226997
128485 283141
128749 611256
128801 128972
128876 211277
128930 612745
128935 131380
129258 134060
130349 606930
130671 230707
130804 130963
131029 481550
132602 287155
132642 583886
132869 139019
133262 261267 277071 356486 545167
133538 156379 162349
133723 607388
133792 135609
134704 280175 362891 365955
135119 135350
135353 136020
135913 139494
136206 155394
136219 139222
136793 136983
136945 138914
137379 282389
137389 721173
137633 765884
137814 916260
138112 404535
138129 139936
138748 140533
138774 138846
138906 139323
139227 803283
140136 841639
140618 787937
140725 140882
142193 145282
142981 143415
144281 304612
144407 152978
144502 153104 165126 167035 169363
144675 145319
144692 166740
144890 150156
144961 904239
145825 469753
146360 217611
147754 149990
147826 514885
148102 149131
148424 193515
149713 431258
150189 417576
150201 320740
151141 153106
151457 597566
151637 359657
153321 213811
153579 512192
153650 153719
154171 156632
154353 169890 170455
154366 203137
154369 154572
154554 156991 166294 167201 171472
155349 210475
155362 482855
155499 870617
155655 157037
155936 155984
156256 672560
157269 531804
157377 325323
157609 402239
157859 159323
158119 841669
159085 378595
159401 159733 163106 163162
159500 160526
159573 327594
160342 160918
160538 160915
160587 160938
161114 162482
161244 477464
161422 182220
161433 163183
161501 175900
162014 207228
162072 165380
162174 165315
162848 235817
163283 528877
163418 807423
163762 164628
163765 595512
163926 743322
164321 990229
165281 203540
165356 224699
165383 167396
165585 628111
165948 362653
166826 168861
166842 166873
166886 184273
167048 394938
167051 190125
167669 624692
167729 168522
168906 207779
168958 203503
168966 174514
169190 169884
169252 171751
170720 188067
170832 173225
171478 171993
172614 172615
172809 249955
172810 173212
173694 173944
173843 250246
173938 213853
174522 576372
174680 220673
175528 994351
175984 307546
176953 598746
177144 177852
177248 332547
177254 273951
177598 177851
177710 192287
177890 682474
178561 178800
178676 180716
179171 985545
179564 187323
179656 193478
180357 180691
180530 372132
182427 483086
182568 234529
182595 182659
182693 360197
182880 276972
182968 211188
183157 183221
183183 185598
183493 184391
183840 993923
184042 201073
184136 185174
184831 209352 219132 221673
185921 324898
186221 186344
186355 192380
186388 203025
186895 187053
187129 282702
187749 187879
188216 188247
188229 189497
190506 190893
191588 435570
192108 195345
192204 280962
192404 192598
192880 689449
193095 284687
193112 193214
194017 916701
194332 195179
194889 218281
195657 745385
195833 196450
196563 196580
196988 840424
197282 197982
198455 217044
198607 849260
199491 199705
199948 217311
200684 213451
201467 215742
201491 290615
201573 637789
201682 201889 202091
201832 744717
202843 321111
202941 982763
203112 405834
203353 301729
203394 205206
203570 203644
203674 217638
203747 206975
203866 224319
205454 206045
205602 206865
206024 212577 212610
207159 207381
207338 208604
207714 208129
207860 850090 852291
208029 261679
208533 848130 853131 867574
209090 376906
209427 485579
209466 212801
209772 231974
209904 398071
211168 284576
211219 281495
211232 430638
211324 212440
211329 415681
211354 712804
211621 228100
212118 609477
212543 214793
212742 214434
213027 549734 550892
213340 215509
213393 748047
213988 216718
215533 215551
215676 216066
215735 491434
215964 219826
216834 273147
216940 691719
217474 804734
219044 233602
220256 269545
220722 373094
220737 400082 603133 615436
221371 222345
221412 453921
222463 603461 614658
223643 346700
224036 239316 242268
224762 229338
224769 228569
224964 228940
225779 225988
226378 245396 253639 255422
226436 232523
226557 226954
227158 228241
227253 227401
228393 313805
228437 231805
228799 233168
229200 855193
229244 273744
229314 323755
230343 525719
230716 506328
231080 290587
231118 657089
231206 244279
233058 233156
233274 326701
233988 459112
234447 236094
234625 643363
234692 235403
234756 377605
235248 236532
235287 246209
236460 529639
238896 244526
240106 240224
240269 812717
240313 271821
241242 522556
241942 295357
242183 242519
242922 325617
243924 249489
244364 616833
244403 244843
244718 245218
245016 258022
245491 445743
246891 751956
247833 249220
248073 545373 841658
248299 248572
248592 774294
248700 250190
249674 419970
249739 880241 931765
250253 250730
250517 254477
251040 276118
251049 251567
251798 704810
252047 407800
252083 252908
252115 252570 253734 253775
252144 274031
252627 260260
253143 329190
253688 254120
253883 253896
254301 254774
254960 469477
255233 284845
256564 509858
256705 261111
256825 562933
257193 288481
258476 277853
258722 271363
258768 259221
258911 301219
259445 272863
259525 360315
260534 902855
261744 262775
262576 263481
264118 949273
264389 920543
265188 271153
265353 755780
265691 539750 543636
266335 751833
266915 608710
267480 268372
269307 303787
269607 270549
270111 270662
270288 270797
271839 356073
271943 858378
272040 274637
272993 280001
273326 274433
273463 276207
274033 279575
274511 304070 304934
274549 304513 305198
274919 276703
275618 292181
276844 398781
276983 816282
277541 434738
278374 349648
278665 806759
279464 930595
280254 280898
280692 280877
280926 398516
281275 322525
282650 284099
283002 934683
283258 283819
284381 789144 881805
284658 285225 285766
285016 285024
285606 285646
287236 310649
287276 593880
287392 287561
288124 778300
288826 289236
288902 422605
290103 290736
290393 291308
290752 446520
290845 328822
291009 291603
291077 427062
291237 326324
292011 879728
292062 292321 292901
293117 300696
293316 295603
293923 543190
294002 504320
294424 294826
294481 294581
294611 310164
294745 294775
295199 295275 295276
295267 295268
295271 295272
295390 298882
296197 592297
296999 627046
297869 460152
299777 317067
299917 300274
300573 302588
301830 302820
302210 574554
303984 319680 539781
304220 320111
304237 304841
304393 770815
305296 910199
305443 305547
305738 551322
306671 418202
306722 907110
307644 642879
307691 309799
307906 309210
307925 308305
308249 309555
308521 310333
309362 309551
309580 467973
309635 309720
309704 444882
309735 310238
309874 311190
310378 310387
310422 558745
310539 484962
311367 313190
311417 311878
311465 490946
311776 936973
311920 452760
311973 311974
312112 632360
312183 913746
312352 434162
313304 566069
313423 651064
313560 314344
313766 501149
313844 315130
314043 314326
314066 323767
315044 315799
315129 315504
315427 447423
315896 319798
316453 539307 540282
316549 726138
317135 355806
317146 317207
317838 339537
317971 596512
319339 372715
321377 321997
322312 339172
322657 352582
325165 325650
325202 325770
325568 365732
325994 370593
326859 573110
326886 530081
327381 329056
328027 328623
329631 330577
332053 970470
332763 332870
332995 333288
333019 371210
333189 442720
334543 415493
334566 334872
335103 335374
335640 848485
336946 337157
337308 828989
337714 432898
338151 801442
338413 339375
338455 338822 340123
338530 339015
338599 339225
339073 615023
340430 364955
340560 357059
340607 428030
340680 432682
340791 538719
341016 341973
344450 345641
344467 386879
345569 351662
346158 349928
346568 443948
347051 426461
348073 357631
348114 349154
348323 857381
348699 382066
349010 980048
350000 517966
350105 531514
350157 350311 350610
350162 350524
350192 350899
350215 350679
350259 350507 350838
350382 350852
351132 815618
352237 352559
352653 352913
352966 381523
353285 383831
353355 960607
353380 353616
353789 431057
354027 527755
354848 356292
355543 701122
356586 487738
356646 357546
356691 358885
358517 359213
358677 858685
359604 562634
359629 361297
359769 359770
359780 359857
359812 359818
360394 361193
363633 363655
363685 363771
363705 363743
363706 524633
363711 363845
363718 364904
363782 363974
363948 364123
363954 364385
363996 476574
364002 364179
364187 364353
364499 383984
366417 425817
367206 949138
367644 368755
368915 370644
369535 369813
370113 370546
371882 371977
372685 813864
373028 483251
373207 374568
373300 375294
373653 373710
373856 405078
375160 375652
375646 378616
375715 377212
375962 706509
376558 378587
377221 574396
377230 952245
377419 482566
378886 379698
379037 523841
379058 379971
379579 920719
380020 406474
380030 918343
380035 450749
380509 380736
381009 392300
382303 390350 390584
382423 429368
382701 388803
382963 384257
383251 403050
383385 390995
383545 383994
383618 559731
384580 388699
384651 384753
384655 388706 401912
384843 580555
385080 550584
385108 929038
385112 549961
385294 550094
385756 387865
385995 855946
386046 547598
386142 547844
386592 734924
386617 678660
386667 644389
388379 388407
388431 392398
388618 389130
388730 389252
388837 390525
388995 390416
389299 389314
389729 426750
390315 635882
390327 390428
390539 655771
390727 391683 501118 649194 836056 866278 868996
390886 391250
391737 421365
392275 392403
392362 396115
392719 854949
393732 393925
393796 681665
394168 434752
394352 519944
394693 396221
395421 402791
396210 453296
398045 399384
398559 399869
398640 449524
399368 410125
399375 846541
400108 400532
400635 401845
400963 795054
402086 402122
402345 710246
402656 729873
403897 404411
404395 579640
404497 406570
405750 555170 762481
406300 407138
406326 409734
408278 408640
408398 408515
408400 459996
408596 409172
408602 416794
408868 520837
409517 853303
409564 673886
409854 410351
410001 481969
410982 411520
411506 446671
411858 762531
412450 413111
413002 434502
413594 762362
414162 679834
414365 415777
414704 948032
415652 415690
415891 431333
416039 749152
416209 678099
416939 832602
417612 968357
417863 418476
418079 756966
419390 433039
419554 420503 420525
419665 419680
420012 866190
420064 422723
420458 423998
421322 584062 697186
421462 422974
421987 918419
422180 423000
422258 802642
422464 918146
423093 695360
423340 424004
425538 426760 426884
426943 426957
427083 432911
427127 582319
427142 598001 709684
427626 427640
427900 433329
428005 428366
428496 435659
429180 467662
429657 429772
430893 431657
430974 432056
431214 432035
431419 431931
431441 431839
431939 432281
431966 918539
431986 477620
432286 566460
432439 524225
433278 919303
433385 434498
435211 507243
435427 919908
436419 437219
436818 908366
437392 479080
437427 440837
437606 441716 741596
437951 850978
439017 439246
439323 439445
439855 688835
440622 451241
440675 464306
440748 441006
441193 441852
441810 442272
442646 444369
442748 443794
442797 560800
443797 444412
444794 475046
444896 445399
445276 446554
446604 448414
446875 605520
447178 447272
447588 630997
447766 452924
448296 754757
448396 448438 698894
448525 547707
449487 489987
449860 463570
450263 468254
450536 454671
450664 450718
451094 467512
452246 452577
452792 718356
454647 465017
454676 455309
454992 455934
455482 455507
455492 611055 618466 685454 685498
456172 547818
456741 457366
457039 827008
457196 460567
457737 457757
458296 555323
458440 458931
458485 485515
458699 889434
459167 459396
460582 472403
461207 463091
462303 478081
462768 523143
465763 466086
466474 471315
468205 469347
468433 468631
468570 468948
469765 469787
469893 470019
470031 470348
470445 470931
470478 926727
470574 470600
470647 473162
471439 594179
471564 472574
471817 812360
472051 472886
475601 557101
475818 476241
475994 492262 495652
476782 492417
477615 508646
478026 478599
478418 478853
479152 485009
479221 479353
479308 502376
479603 482498
479993 480334
481297 885348
481418 808730
482252 895546
482325 482341
483439 689174
484161 484462
484467 688726
484545 493221
484607 487692
484632 688147
485399 486280
485595 709665
485981 508089
486910 487306
487165 487566
487321 487326
487473 487528
487642 620502
489247 491904
489326 489374
489673 716228
489705 850413
489775 490518
489967 598038
490013 505402
490884 490962
492931 496491 727750
493760 496007
494008 494275
494714 494800
494876 495249
494931 495305
495031 495057
495346 495409
495678 519254
496203 496338
498719 498788
501320 501714
501806 502391
503043 557427
503257 511362
503839 504122
504864 776084
505264 567446
506755 506935
506970 534562
507537 510544
509772 510665
509807 520099
510525 913727
510593 512948
510698 511983
511670 511942
512283 512343
512600 515556
512841 515108
512934 513035
514115 514120
514238 514598 514670 514791
514269 519145
514278 514434 514617 514987 515513
516936 517824
516977 602497
517653 683722
518240 520589
518692 926445
521954 524616
522011 522415
522210 651215
524126 525207
524335 688180
524431 954652
525797 526857
527908 549979
529079 529082
529486 546775
529920 557082
530283 590881
530575 605553
533609 864938
533786 534418
534600 997138
535461 540741
535877 673174
536131 537224
537678 580172
538567 539095
539105 541389
539342 541530
539834 540012
539957 567675
540640 540864
541109 546569
541452 554901
542566 543761
542879 867492
543062 544661
543208 969848
543498 948230
543804 607439
544148 551348
544756 551086
545254 546314
547232 548467
548165 548220
548602 549491
548825 550696
548987 550676
548996 710496
549160 551813
549189 549523
549601 709214
551616 551726
551807 560310
552893 552932
553035 807749
554886 555793
554934 555998
555167 555814
555174 739159
555781 556369
556075 738799
556238 556318
556602 739227
556769 558696 808651
556919 556972
556989 734673
557452 557530 561701
557507 559371
558630 564190
558689 837336
559062 562166
559185 582678
559319 628246
559951 559996 560147
560568 954468
560819 563528
560949 561043 561271
561025 562109 562243
561276 678835
563328 563496
563376 682137
565047 800889
567917 579598
568365 662179
568688 569032
569094 569237
569636 570229
570750 571615
571161 571766
571595 615257
572474 572512
572631 576431 607450
574515 641452
574789 942674
575155 581269
576731 577654
577018 580359
578209 702730
578710 596321
578802 580081
578994 579516
579374 579790
580151 580185
580689 805340
580903 581713
583591 584475
584281 584972
584403 797043
584418 595857
584461 584744
584920 585195
586116 743394
586215 853291
586455 587143
586575 685857
588008 589006
588465 802667
588854 782986
589195 591251
589648 590903
590089 590275
590120 591452
590575 591899
590980 591476
591509 973694
591917 591985
592353 711525
592531 593333
592572 593043
592675 858531
593518 594836
593706 593819
594001 595834
594043 609948
594198 594553
594271 874161
595589 595772
595626 856735
595694 828181
596218 599516
596260 678745
596364 596719
596443 607342
596498 648121
596800 734667
597618 600063
598020 598035
598545 899731
601360 603090
601766 602692
601879 658267 684340
602116 602858
602268 606088
603283 603542
603405 651118
603577 603602
604467 618801
605214 768399
605217 606727
605249 611210
605507 606698
605508 941151
605584 616661
605760 608650
607686 607728
608851 610297
609521 609709
611373 611831
611628 872940
612830 866427
612970 770579
613528 614214
615708 744069
616552 662681
616985 617739
618440 825895
618617 628940
619861 620178
620527 770189 793377 849044
620991 711359
621820 823590
623611 652265
623769 711250
624240 633716
624935 629521
624976 625158
626088 691409
626145 626375
626750 627296 627640
626909 856843 859290
628681 801867
630079 632216
630358 630561
632125 632464
632130 632389
632146 632170
632215 637857
632684 770414
632998 633640
633119 657464
633462 641573
633521 724275
634447 788976
635378 966469
635753 647698
636811 637293
637725 637897
638233 697298
639887 640735
640185 661178
640846 642143
641132 643497
641800 641813
642013 643313
643571 737488
643654 761205
644195 721069
644218 863503
645192 645352
645393 767916
647326 647459
647858 647976
648004 668315
648005 653532
650781 653815
651142 651648 652021
651991 652793
653099 653657
653146 765928
655186 655576
655489 656662
655817 710202
656695 709216
656938 784168
657180 657756
657373 890868
659011 659873
660849 720293
660931 664338
662776 668689
663263 680215
663400 663991
663431 668963 677165
664028 878978
664159 665803
665112 665375
665216 666108
665260 665459
665395 707767
666866 667631
668624 669965
669466 671409
669711 671555
669742 936688
670007 759737
670628 681706
670702 671202 672011
672282 672386
672740 673658
673267 688130
673501 673878 731786 731872 733063
673791 852980
674941 764528
675368 675775
676135 931797
676614 679019
676868 677059
677902 977933
678066 706658
679914 683329
680121 680524
680372 684919
680383 681784
680606 681587
681361 682668
681864 770547
682046 682271
682218 897415
682339 685270
684516 706415
685352 709089
685480 896980
685877 686150
686310 686516
686907 687262
687506 687980
688231 864232
689054 689351
689563 889228
689894 690489
689979 785821
689999 692242
690104 795373
690945 975244
693870 703216
693995 697537
694087 703435
694645 762565
694940 884307
695991 698954
696557 700163
698261 698496
698595 969755
698826 902903
698870 699494
698983 702904
699093 750786
699344 700721
700024 703144
700092 702075
703955 707561
706416 709995
707253 871860
707608 805503
709472 711681
709600 730442
709707 807238
709991 710276
710937 711021
714604 715521
714828 714854 714913 715072
715041 737776
715183 723899
715498 716808
716517 999328
717036 856401
718369 722187
719871 719905
720003 983825
720059 778318
720218 901022
720868 723945
722208 908356
724622 790135
726130 726475
726600 734127
727137 960670
727671 730181
727926 729916
728074 729608
730273 730406
730649 731019
731920 733647
731932 893465 922744
732172 732621
732560 840763
733766 735052
733789 733823 739287
734232 736177
734445 734939
734566 742004
734925 991783
735008 810545
735541 735862
735696 736935
735824 852038
735979 739256
736856 737421
737684 737854
737863 739115
738098 755399
738117 738147
738125 816796 936340
738415 752177
739298 739520
739300 743560
739484 763193
739960 854289
740060 993487
741550 745233
741607 825919
742035 774626
743076 743587 743752
743092 743245 744129
743140 876521
743187 743286
744395 744513
744509 753436
745143 747122 747204
745591 755596
747127 762584
747999 782837
749170 856835
749491 749583
750671 958520
751546 751639
752111 774057
753473 782824
753528 753592
754444 769530
754707 899296
755706 756376
755720 756232
756787 949297
757220 853321
757600 757905
758597 767398
758633 758863
758946 773538
759625 767441
760623 764565
760793 763043
762456 832240
763568 763786
764291 764867
764323 904462
765337 811309
765756 879263
765867 765883
766420 849472 852847 853170 854013 854035 854733
766708 767715
767397 861726
767541 767662
772850 876655
774574 794907
774748 866784
775210 778070
776200 777120
776222 777255
776641 892068
777810 801569
778036 778462
778443 779378
779481 779723
779670 780052
779855 781754
780136 782271 787128
780433 780991
782661 783743
783069 804962
784434 820311
784755 793256
786444 905454
786567 787625
788363 958950
788617 789299
788631 802523
789465 790556
790061 798402
790306 809581
790472 790686
791580 791639
792982 793888
793354 794215
793966 794919
794331 794726
794493 794511
795043 803032
795491 795944
795677 795713
795764 796808
797118 798415
797247 880215
799087 960667
799305 982381
799396 799957
800123 800155
800142 966488
801213 807080
803120 808251
803255 804028
803323 803579
804689 816538
804697 805140
804719 887444
804762 970008
805026 805227
806744 810544
806869 810707
807034 808122
808095 810536
808518 809558
808770 925338
809342 809585
809588 809743
809863 850865
810121 929189
810690 865956
810925 811467
810977 835437
812503 947497
812809 813299
812851 813931
813742 814804
813850 834007
814119 817911
814798 814838 814993
814852 828196
816100 817104
816270 817096 817179
816278 835587
818698 819263
818822 836373
820570 821292
821818 896856
822562 823110
822711 824323 824602
823065 825336
823664 826167
824200 824982
824283 958502
825772 826293
825856 825991
826235 826407
826729 827856
826787 826823
828888 904235
829427 965259
830535 924277
831436 831641
832965 835250
833444 842155
833454 834305
833480 987854
833528 835479
833656 843923
835416 874203
835745 836020
835889 836781
836077 857312
836357 836577
836572 837335
837495 837823
838111 847342
838987 891261
839194 841769
839400 839717
839417 839813
839444 839765
839703 856080
840560 842184
841118 842147
841130 952057
841270 841532
841289 841411
843252 845537
844982 845725
845122 845766
845879 909414
846144 852904
846830 852596
847190 888203
847271 918325
849078 849899
849349 849588
850324 850652
854637 921333
854825 855141
856112 860821
856434 869938
856716 858418
857199 858467
857203 857684
857431 863358
857767 868014 870005
858930 860536
858935 860097
859416 859821
859418 862752
859616 859817
859811 860056
860047 910800
860392 862576
860567 872734
860683 860984
860696 860714
860922 861297
862725 881117
863356 865438
863534 913895
863536 954164
863552 999782
864320 866271
864588 866767
864780 903133
865152 872046
865393 873230
865502 880775
865637 876225
866694 881828
867034 876363
868931 924863
870249 870307
870393 870540
876458 902992
876907 877099
879321 880647
880397 883334
881546 882305
881864 955543
881966 882088
882091 886399
883139 976122
883182 890115
883861 964488
884079 884223 884461
884971 998437
885472 885858 886279 886579
886068 920317
886846 887335
887256 913182
887482 887802
887532 906364
888116 985435
888453 889443
889062 986954
889578 948902
889583 891681
890033 890740
890447 915358
890530 892756
890665 890925
892063 953156
892262 926390
893078 896269
893148 923027
893395 972383
893444 894729
893751 893927
893956 894025
894431 895292
894964 912461
895392 895889
895559 896705
896203 954782
896223 898431
896854 897990
897143 910517
897453 933776
897494 898251
897513 925153
897514 897817
897593 948025
898774 900947
900282 901388
901079 925169
901363 908277
901686 901800
903659 904064
903707 905312
903807 908505
904533 990189
904875 906024
904894 905160
905186 905373
905319 905750 906085
905432 923524
906440 987563
906816 907122
906916 907780
907125 907621
910786 911819
911590 911787
912663 917287
912694 912738
913295 926664
914070 915990
915808 932412
916012 919890
918329 923548
919498 919732
920735 992527
920891 921432
921828 937465
921970 923170
921980 922400 923040 923437
922334 922646
922918 924675
923143 926562
923804 952744
924035 924776
924994 925725
925806 925868
926341 926374
927243 942768
928050 929115
928066 928865
928780 929487
928802 928983
929688 930535
929813 943662
931183 932507
931727 941369
931749 991102
931902 934640
932272 933222
932534 963390
933637 933651
934102 952046
935451 936925
936525 941840
936772 980209
938060 939329
938154 939229
939200 940519
939720 941253
942986 943693
943006 943253
943103 944615
943824 944179
943873 948454
945006 946029
945607 945987
945684 945715 945811 946611
946193 946879
946729 948663
947109 952327
947114 951690
949144 949460
949412 978411
950900 951359
950930 951467
951214 951929
951829 952383
955528 986063
959379 974689
959462 996130
959662 964312
960691 976181
960719 963643
962477 962639
962530 964019
962635 963480
962858 962968
963783 965525
964829 965974
966562 966998
966591 970402
966603 967216
966870 966974
966955 967503
968300 968306
968607 969191
968972 970240
969207 969483
969249 970749
970622 970643
970739 970838
970760 971754
971386 971645
971890 973328
972208 978779
976130 977399
976792 977504
978899 982081
980374 980785
981952 985510
982047 982373
983554 984492
983867 986790
984057 984885
984328 985815
984468 990645
984794 992864
984926 985135
985964 986229
986508 986588
989154 990111
989817 991217
989949 990034
990146 990297
990477 991602
991502 991755
993026 994800
994192 996625
994429 994864
994964 994976 995070